<?xml version="1.0" encoding="UTF-8" standalone="no"?>
<!-- Created with Inkscape (http://www.inkscape.org/) -->

<svg
   xmlns:dc="http://purl.org/dc/elements/1.1/"
   xmlns:cc="http://creativecommons.org/ns#"
   xmlns:rdf="http://www.w3.org/1999/02/22-rdf-syntax-ns#"
   xmlns:svg="http://www.w3.org/2000/svg"
   xmlns="http://www.w3.org/2000/svg"
   xmlns:xlink="http://www.w3.org/1999/xlink"
   xmlns:sodipodi="http://sodipodi.sourceforge.net/DTD/sodipodi-0.dtd"
   xmlns:inkscape="http://www.inkscape.org/namespaces/inkscape"
   width="128"
   height="128"
   viewBox="0 0 128 128"
   id="svg2"
   version="1.1"
   inkscape:version="0.91 r13725"
   sodipodi:docname="ui_effect_blindness_ii.svg"
   inkscape:export-filename="ui_effect_blindness_ii.png"
   inkscape:export-xdpi="90"
   inkscape:export-ydpi="90">
  <defs
     id="defs4">
    <linearGradient
       inkscape:collect="always"
       id="linearGradient4135">
      <stop
         style="stop-color:#006ba1;stop-opacity:1"
         offset="0"
         id="stop4137" />
      <stop
         style="stop-color:#00527b;stop-opacity:1"
         offset="1"
         id="stop4139" />
    </linearGradient>
    <radialGradient
       inkscape:collect="always"
       xlink:href="#linearGradient4135"
       id="radialGradient4141"
       cx="71.091267"
       cy="991.25026"
       fx="71.091267"
       fy="991.25026"
       r="44.036093"
       gradientTransform="matrix(1,0,0,1.0257701,6.1792371e-7,-25.544684)"
       gradientUnits="userSpaceOnUse" />
    <radialGradient
       inkscape:collect="always"
       xlink:href="#linearGradient4135"
       id="radialGradient4163"
       gradientUnits="userSpaceOnUse"
       gradientTransform="matrix(0.99999995,0,0,1.0257702,-1.5075397e-6,-25.544675)"
       cx="71.091267"
       cy="991.25026"
       fx="71.091267"
       fy="991.25026"
       r="44.036093" />
    <mask
       maskUnits="userSpaceOnUse"
       id="mask3347">
      <circle
         style="opacity:1;fill:#ffffff;fill-opacity:1;stroke:none;stroke-width:5;stroke-linecap:round;stroke-linejoin:round;stroke-miterlimit:4;stroke-dasharray:none;stroke-dashoffset:0;stroke-opacity:1"
         id="circle3349"
         cx="64"
         cy="988.36218"
         r="59" />
    </mask>
    <mask
       maskUnits="userSpaceOnUse"
       id="mask3351">
      <circle
         style="opacity:1;fill:#ffffff;fill-opacity:1;stroke:none;stroke-width:5;stroke-linecap:round;stroke-linejoin:round;stroke-miterlimit:4;stroke-dasharray:none;stroke-dashoffset:0;stroke-opacity:1"
         id="circle3353"
         cx="64"
         cy="988.36218"
         r="59" />
    </mask>
  </defs>
  <sodipodi:namedview
     id="base"
     pagecolor="#ffffff"
     bordercolor="#666666"
     borderopacity="1.0"
     inkscape:pageopacity="0.0"
     inkscape:pageshadow="2"
     inkscape:zoom="5.6"
     inkscape:cx="31.60271"
     inkscape:cy="72.695111"
     inkscape:document-units="px"
     inkscape:current-layer="layer1"
     showgrid="false"
     units="px"
     inkscape:window-width="1920"
     inkscape:window-height="1017"
     inkscape:window-x="-8"
     inkscape:window-y="-8"
     inkscape:window-maximized="1" />
  <metadata
     id="metadata7">
    <rdf:RDF>
      <cc:Work
         rdf:about="">
        <dc:format>image/svg+xml</dc:format>
        <dc:type
           rdf:resource="http://purl.org/dc/dcmitype/StillImage" />
        <dc:title />
      </cc:Work>
    </rdf:RDF>
  </metadata>
  <g
     inkscape:label="Ebene 1"
     inkscape:groupmode="layer"
     id="layer1"
     transform="translate(0,-924.3622)">
    <ellipse
       style="opacity:1;fill:none;fill-opacity:1;stroke:#730073;stroke-width:5;stroke-linecap:round;stroke-linejoin:miter;stroke-miterlimit:4;stroke-dasharray:none;stroke-dashoffset:0;stroke-opacity:1"
       id="ring"
       cx="64"
       cy="988.36218"
       rx="61.500004"
       ry="61.5" />
    <path
       style="fill:url(#radialGradient4141);fill-opacity:1;fill-rule:evenodd;stroke:#00a5e7;stroke-width:5;stroke-linecap:round;stroke-linejoin:round;stroke-miterlimit:4;stroke-dasharray:none;stroke-opacity:1"
       d="m 34.49053,1027.5165 c 2.758464,-21.5742 -2.939384,-39.04087 -35.00402772,-43.70036 30.16648972,2.81008 42.30455372,-13.2481 43.74232972,-40.50502 -3.72275,40.65829 15.664075,47.13653 38.39466,48.66921 -38.576284,-6.23045 -42.081697,11.09797 -47.132962,35.53617 z"
       id="star1"
       inkscape:connector-curvature="0"
       sodipodi:nodetypes="ccccc"
       mask="url(#mask3351)" />
    <path
       sodipodi:nodetypes="ccccc"
       inkscape:connector-curvature="0"
       id="star2"
       d="m 104.50939,1032.901 c -7.346187,-19.5846 -20.03722,-31.8766 -49.393418,-21.43 26.911492,-11.1663 30.018254,-30.27527 18.996359,-54.09858 15.099259,36.2456 34.493129,33.04251 54.508379,24.13154 -35.598442,12.0368 -30.794614,28.34684 -24.11132,51.39704 z"
       style="fill:url(#radialGradient4163);fill-opacity:1;fill-rule:evenodd;stroke:#00a5e7;stroke-width:5;stroke-linecap:round;stroke-linejoin:round;stroke-miterlimit:4;stroke-dasharray:none;stroke-opacity:1"
       mask="url(#mask3347)" />
  </g>
</svg>
