<?xml version="1.0" encoding="UTF-8" standalone="no"?>
<svg
   xmlns:dc="http://purl.org/dc/elements/1.1/"
   xmlns:cc="http://creativecommons.org/ns#"
   xmlns:rdf="http://www.w3.org/1999/02/22-rdf-syntax-ns#"
   xmlns:svg="http://www.w3.org/2000/svg"
   xmlns="http://www.w3.org/2000/svg"
   xmlns:xlink="http://www.w3.org/1999/xlink"
   xmlns:sodipodi="http://sodipodi.sourceforge.net/DTD/sodipodi-0.dtd"
   xmlns:inkscape="http://www.inkscape.org/namespaces/inkscape"
   width="128"
   height="128"
   viewBox="0 0 128 128"
   id="svg2"
   version="1.1"
   inkscape:version="1.0.1 (3bc2e813f5, 2020-09-07, custom)"
   sodipodi:docname="ui_effect_unk4.svg"
   inkscape:export-filename="ui_effect_unk3.png"
   inkscape:export-xdpi="87.1875"
   inkscape:export-ydpi="87.1875">
  <defs
     id="defs4">
    <linearGradient
       inkscape:collect="always"
       id="linearGradient4135">
      <stop
         style="stop-color:#006ba1;stop-opacity:1"
         offset="0"
         id="stop4137" />
      <stop
         style="stop-color:#00527b;stop-opacity:1"
         offset="1"
         id="stop4139" />
    </linearGradient>
    <radialGradient
       inkscape:collect="always"
       xlink:href="#linearGradient4135"
       id="radialGradient4158"
       cx="71.996101"
       cy="938.21857"
       fx="71.996101"
       fy="938.21857"
       r="22.892082"
       gradientTransform="matrix(1,0,0,0.92278046,0,74.149966)"
       gradientUnits="userSpaceOnUse" />
    <radialGradient
       inkscape:collect="always"
       xlink:href="#linearGradient4135"
       id="radialGradient4168"
       cx="43.471855"
       cy="1162.3231"
       fx="43.471855"
       fy="1162.3231"
       r="24.469957"
       gradientTransform="matrix(1,0,0,0.33179217,5.2973212e-7,655.90504)"
       gradientUnits="userSpaceOnUse" />
    <radialGradient
       inkscape:collect="always"
       xlink:href="#linearGradient4135"
       id="radialGradient32"
       gradientUnits="userSpaceOnUse"
       gradientTransform="matrix(1,0,0,0.33179217,3.2442838e-7,655.90504)"
       cx="16.122663"
       cy="939.32318"
       fx="16.122663"
       fy="939.32318"
       r="24.469957" />
    <radialGradient
       inkscape:collect="always"
       xlink:href="#linearGradient4135"
       id="radialGradient36"
       gradientUnits="userSpaceOnUse"
       gradientTransform="matrix(1,0,0,0.33179217,3.2e-7,655.90504)"
       cx="8.2083216"
       cy="1012.0793"
       fx="8.2083216"
       fy="1012.0793"
       r="24.469957" />
    <radialGradient
       inkscape:collect="always"
       xlink:href="#linearGradient4135"
       id="radialGradient40"
       gradientUnits="userSpaceOnUse"
       gradientTransform="matrix(1,0,0,0.33179217,-5.2196318e-6,655.90506)"
       cx="109.74571"
       cy="1065.2626"
       fx="109.74571"
       fy="1065.2626"
       r="24.469957" />
    <radialGradient
       inkscape:collect="always"
       xlink:href="#linearGradient4135"
       id="radialGradient44"
       gradientUnits="userSpaceOnUse"
       gradientTransform="matrix(1,0,0,0.92278046,4.2507406e-7,74.149966)"
       cx="107.16631"
       cy="957.12781"
       fx="107.16631"
       fy="957.12781"
       r="22.892082" />
  </defs>
  <sodipodi:namedview
     id="base"
     pagecolor="#ffffff"
     bordercolor="#666666"
     borderopacity="1.0"
     inkscape:pageopacity="0.0"
     inkscape:pageshadow="2"
     inkscape:zoom="2.8"
     inkscape:cx="97.135107"
     inkscape:cy="110.97201"
     inkscape:document-units="px"
     inkscape:current-layer="layer1"
     showgrid="false"
     units="px"
     inkscape:window-width="1920"
     inkscape:window-height="1016"
     inkscape:window-x="0"
     inkscape:window-y="0"
     inkscape:window-maximized="1"
     inkscape:document-rotation="0" />
  <metadata
     id="metadata7">
    <rdf:RDF>
      <cc:Work
         rdf:about="">
        <dc:format>image/svg+xml</dc:format>
        <dc:type
           rdf:resource="http://purl.org/dc/dcmitype/StillImage" />
        <dc:title></dc:title>
      </cc:Work>
    </rdf:RDF>
  </metadata>
  <g
     inkscape:label="Ebene 1"
     inkscape:groupmode="layer"
     id="layer1"
     transform="translate(0,-924.3622)">
    <path
       style="fill:none;fill-opacity:1;fill-rule:evenodd;stroke:#00a5e7;stroke-width:5;stroke-linecap:round;stroke-linejoin:round;stroke-miterlimit:4;stroke-dasharray:none;stroke-opacity:1"
       d="m 74.443053,1031.2839 c -4.088337,-19.8755 -14.397401,-33.56825 -44.10275,-27.983 27.471111,-6.64344 33.327852,-24.48728 26.35596,-48.97884 9.007128,37.01055 28.074342,36.86484 48.597167,31.34294 -35.926745,6.16806 -33.781221,22.5222 -30.850377,45.6189 z"
       id="star"
       inkscape:connector-curvature="0"
       sodipodi:nodetypes="ccccc" />
    <path
       style="opacity:1;fill:url(#radialGradient4158);fill-opacity:1;fill-rule:evenodd;stroke:#00a5e7;stroke-width:5;stroke-linecap:round;stroke-linejoin:round;stroke-miterlimit:4;stroke-dasharray:none;stroke-opacity:1"
       d="m 72.352176,979.75748 c 11.423446,-15.00683 16.960282,-32.04405 13.362418,-46.92627 -7.937577,-3.72376 -30.000422,-5.5556 -38.799251,-0.83516 20.549727,16.49167 26.794814,28.85531 25.436833,47.76143 z"
       id="path4150"
       inkscape:connector-curvature="0"
       sodipodi:nodetypes="cccc" />
    <path
       style="opacity:1;fill:url(#radialGradient4168);fill-opacity:1;fill-rule:evenodd;stroke:#00a5e7;stroke-width:5;stroke-linecap:round;stroke-linejoin:round;stroke-miterlimit:4;stroke-dasharray:none;stroke-opacity:1"
       d="m 28.835926,1038.4136 c 16.184997,-3.424 22.146243,-18.0831 25.925699,-31.9964 -6.126416,22.4688 -4.76503,30.04 0.91141,40.7208 -9.908752,0.04 -17.611124,-3.3251 -26.837109,-8.7244 z"
       id="path4160"
       inkscape:connector-curvature="0"
       sodipodi:nodetypes="cccc" />
    <path
       style="opacity:1;fill:url(#radialGradient32);fill-opacity:1;fill-rule:evenodd;stroke:#00a5e7;stroke-width:5;stroke-linecap:round;stroke-linejoin:round;stroke-miterlimit:4;stroke-dasharray:none;stroke-opacity:1"
       d="m 10.466242,961.53296 c 24.461959,3.46057 35.176844,12.4552 44.823147,21.76617 -6.667984,-4.68063 -31.770298,-14.126 -48.4652205,-10.4813 z"
       id="path30"
       inkscape:connector-curvature="0"
       sodipodi:nodetypes="cccc" />
    <path
       style="opacity:1;fill:url(#radialGradient44);fill-opacity:1;fill-rule:evenodd;stroke:#00a5e7;stroke-width:5;stroke-linecap:round;stroke-linejoin:round;stroke-miterlimit:4;stroke-dasharray:none;stroke-opacity:1"
       d="m 83.102036,987.962 c 14.065048,-7.43429 26.440614,-17.72206 33.820704,-26.03202 -3.16707,-7.72487 -7.92592,-15.38261 -17.246516,-22.52461 0.535776,26.20777 -6.573629,32.73366 -16.574188,48.55663 z"
       id="path42"
       inkscape:connector-curvature="0"
       sodipodi:nodetypes="cccc" />
    <path
       style="opacity:1;fill:url(#radialGradient36);fill-opacity:1;fill-rule:evenodd;stroke:#00a5e7;stroke-width:5;stroke-linecap:round;stroke-linejoin:round;stroke-miterlimit:4;stroke-dasharray:none;stroke-opacity:1"
       d="m 3.1423006,988.44219 c 15.4650284,-2.12677 26.4979934,-2.46668 46.8502114,3.99482 -19.329814,-1.62954 -32.97705,-0.69757 -46.1319334,3.30428 z"
       id="path34"
       inkscape:connector-curvature="0"
       sodipodi:nodetypes="cccc" />
    <path
       style="opacity:1;fill:url(#radialGradient40);fill-opacity:1;fill-rule:evenodd;stroke:#00a5e7;stroke-width:5;stroke-linecap:round;stroke-linejoin:round;stroke-miterlimit:4;stroke-dasharray:none;stroke-opacity:1"
       d="m 118.54635,1011.5324 c -14.65426,5.8607 -22.963434,4.649 -41.952177,-4.1596 20.219983,2.2975 37.951107,-5.0184 46.912517,-9.9168 z"
       id="path38"
       inkscape:connector-curvature="0"
       sodipodi:nodetypes="cccc" />
    <ellipse
       style="opacity:1;fill:none;fill-opacity:1;stroke:#730073;stroke-width:5.00000048;stroke-linecap:round;stroke-linejoin:miter;stroke-miterlimit:4;stroke-dasharray:none;stroke-dashoffset:0;stroke-opacity:1"
       id="ring"
       cx="64"
       cy="988.36218"
       rx="61.500004"
       ry="61.5" />
  </g>
</svg>
