[gd_scene load_steps=5 format=3 uid="uid://dpf4fjv2mskms"]

[ext_resource type="Script" path="res://Assets/Spells/Scripts/BouncingProjectile.gd" id="1"]
[ext_resource type="PackedScene" uid="uid://c56w781ns4olr" path="res://Assets/Spells/fire_orb.glb" id="2"]

[sub_resource type="SphereShape3D" id="1"]
radius = 0.104861

[sub_resource type="SphereShape3D" id="2"]
radius = 0.115801

[node name="FireOrb" type="RigidBody3D"]
script = ExtResource("1")
speed = 20.0

[node name="fire_orb" parent="." instance=ExtResource("2")]

[node name="CollisionShape3D" type="CollisionShape3D" parent="."]
shape = SubResource("1")

[node name="OmniLight3D" type="OmniLight3D" parent="."]
light_color = Color(0.94902, 0.329412, 0.0588235, 1)
light_energy = 0.1
omni_range = 1.0
omni_attenuation = 3.13834

[node name="Area3D" type="Area3D" parent="."]

[node name="CollisionShape3D" type="CollisionShape3D" parent="Area3D"]
shape = SubResource("2")

[connection signal="area_entered" from="Area3D" to="." method="_on_Area_area_entered"]
